HTTrack3.49-2 launched on Sun, 29 May 2022 17:26:55 at http://localhost/HarvestLinks17.html +*.css +*.js -ad.doubleclick.net/* -mime:application/foobar +*.gif +*.jpg +*.jpeg +*.png +*.tif +*.tiff +*.bmp +*.pcx +*.ddf +*.zip +*.tar +*.tgz +*.gz +*.rar +*.z +*.exe +*.7z +*.ace +*.RAR +*.bz2 +*.lzh +*.sit +*.mov +*.mpg +*.mpeg +*.avi +*.asf +*.divx +*.mp4 +*.mp3 +*.mp2 +*.rm +*.wav +*.vob +*.qt +*.vid +*.ac3 +*.wma +*.wmv +*.ogg +*.flac +*.asm +*.bin +*.smd +.gen +.md +*.h +*.cpp +*.c +*.hpp +*.inc +*.iso +*.cue +*.pdf +*.imageshack.us/* +https://toyotamanuals.com.au/*
(E:\ToyotaManuals\httrack.exe http://localhost/HarvestLinks17.html -%N0 -C0 -O E:\ToyotaManuals\Apache24\htdocs,E:\ToyotaManuals\Apache24\htdocs\Cache\Cache17 -c32 -#L0 -%! -A0 -%c0 -r2000000000 -s0 -%k -n -R8 -%v -q -F "Mozilla /5.0 (Windows NT 6.3; WOW64) AppleWebKit/537.36 (KHTML, like Gecko) Chrome/33.0.1750.117 Safari/537.36" +*.css +*.js -ad.doubleclick.net/* -mime:application/foobar +*.gif +*.jpg +*.jpeg +*.png +*.tif +*.tiff +*.bmp +*.pcx +*.ddf +*.zip +*.tar +*.tgz +*.gz +*.rar +*.z +*.exe +*.7z +*.ace +*.RAR +*.bz2 +*.lzh +*.sit +*.mov +*.mpg +*.mpeg +*.avi +*.asf +*.divx +*.mp4 +*.mp3 +*.mp2 +*.rm +*.wav +*.vob +*.qt +*.vid +*.ac3 +*.wma +*.wmv +*.ogg +*.flac +*.asm +*.bin +*.smd +.gen +.md +*.h +*.cpp +*.c +*.hpp +*.inc +*.iso +*.cue +*.pdf +*.imageshack.us/* +https://toyotamanuals.com.au/* )

Information, Warnings and Errors reported for this mirror:
note:	the hts-log.txt file, and hts-cache folder, may contain sensitive information,
	such as username/password authentication for websites mirrored in this project
	do not share these files/folders if you want these information to remain private

17:26:55	Warning: 	* security warning: !!! BYPASSING SECURITY LIMITS - MONITOR THIS SESSION WITH EXTREME CARE !!!
17:26:55	Warning: 	HTML file (17732 bytes) retransferred due to lack of cache: localhost/HarvestLinks17.html

HTTrack Website Copier/3.49-2 mirror complete in 1 seconds : 63 links scanned, 2 files written (106560 bytes overall) [107108 bytes received at 107108 bytes/sec]
(No errors, 2 warnings, 0 messages)
